  0: f 
  1: f     3589 | 3, 2, 1
  2: t     1234 | 2
  3: t      234 | 3
  4: f      235 | 4
  5: t     9982 | 5
  6: f 
  7: f     6781 | 5, 7
  8: f     2345 | 2, 8
  9: f 
 10: f     2342 | 10
successful probe count 12			unsuccessful probe count 146
average successful search length 1.500000	unsuccessful search length 1.327273
record 6781 is present in location 7
record 7766 is not present: testLoc returns -1
record 90 is not present: testLoc returns -5
something weird happened -- duplicate insertion 6781 attempted or heap space depleted
