  0: t name: diane lake            integer:  24680 | 5, 0
  1: f 
  2: t name: alan knox             integer:  78901 | 2
  3: f 
  4: t name: willie yuu            integer:  12345 | 4
  5: t name: beth smith            integer:  67890 | 5
  6: f name: darrell cruz          integer:  23455 | 2, 4, 6
  7: f name: patti bliss           integer:  45678 | 12, 7
  8: f name: jehan roma            integer:  34567 | 5, 0, 8
  9: f name: alex kronkov          integer:  56789 | 9
 10: f name: peg smith             integer:  92014 | 0, 10
 11: f 
 12: t name: herb jones            integer:  92093 | 12
successful probe count 17			unsuccessful probe count 240
average successful search length 1.700000	unsuccessful search length 1.538462
